{
  "title": "UXM data frames all 3 maintenance",
  "services": {
    "query": {
      "list": {
        "0": {
          "id": 0,
          "color": "#E0F9D7",
          "alias": "",
          "pin": false,
          "type": "lucene",
          "enable": true,
          "query": "_type:sakuli-frame"
        },
        "1": {
          "id": 1,
          "color": "#EF843C",
          "alias": "CRITICAL",
          "pin": false,
          "type": "lucene",
          "enable": true,
          "query": "_type:sakuli-frame AND frame_state:CRITICAL AND frame_maintenance:F"
        },
        "2": {
          "id": 2,
          "color": "#584477",
          "alias": "unknown",
          "pin": false,
          "type": "lucene",
          "enable": true,
          "query": "_type:sakuli-frame AND frame_state:unknown AND frame_maintenance:F"
        },
        "4": {
          "id": 4,
          "color": "#7EB26D",
          "alias": "OK",
          "pin": false,
          "type": "lucene",
          "enable": true,
          "query": "_type:sakuli-frame AND frame_state:OK AND frame_maintenance:F"
        },
        "5": {
          "id": 5,
          "color": "#82B5D8",
          "alias": "maintenance",
          "pin": false,
          "type": "lucene",
          "enable": true,
          "query": "_type:sakuli-frame AND frame_maintenance:T"
        },
        "6": {
          "id": 6,
          "color": "#E24D42",
          "alias": "ERROR",
          "pin": false,
          "type": "lucene",
          "enable": true,
          "query": "_type:sakuli-frame AND frame_state:ERROR AND frame_maintenance:F"
        },
        "7": {
          "id": 7,
          "color": "#EAB839",
          "alias": "WARNING",
          "pin": false,
          "type": "lucene",
          "enable": true,
          "query": "_type:sakuli-frame AND frame_state:WARNING AND frame_maintenance:F"
        },
        "9": {
          "id": 9,
          "color": "#E0F9D7",
          "alias": "",
          "pin": false,
          "type": "lucene",
          "enable": true,
          "query": "_type:sakuli-case"
        },
        "10": {
          "id": 10,
          "color": "#E24D42",
          "alias": "",
          "pin": false,
          "type": "lucene",
          "enable": true,
          "query": "_type:sakuli-case AND case_result_state_norm:ERROR"
        },
        "11": {
          "id": 11,
          "color": "#EF843C",
          "alias": "",
          "pin": false,
          "type": "lucene",
          "enable": true,
          "query": "_type:sakuli-case AND case_result_state_norm:CRITICAL"
        },
        "12": {
          "id": 12,
          "color": "#EAB839",
          "alias": "",
          "pin": false,
          "type": "lucene",
          "enable": true,
          "query": "_type:sakuli-case AND case_result_state_norm:WARNING"
        },
        "13": {
          "id": 13,
          "color": "#7EB26D",
          "alias": "",
          "pin": false,
          "type": "lucene",
          "enable": true,
          "query": "_type:sakuli-case AND case_result_state_norm:OK"
        }
      },
      "ids": [
        0,
        1,
        2,
        4,
        5,
        6,
        7,
        9,
        10,
        11,
        12,
        13
      ]
    },
    "filter": {
      "list": {
        "0": {
          "type": "time",
          "field": "case_frame_start",
          "from": "now-6h",
          "to": "now",
          "mandate": "must",
          "active": true,
          "alias": "",
          "id": 0
        }
      },
      "ids": [
        0
      ]
    }
  },
  "rows": [
    {
      "title": "Violation overview",
      "height": "350px",
      "editable": true,
      "collapse": false,
      "collapsable": true,
      "panels": [
        {
          "span": 4,
          "editable": true,
          "type": "hits",
          "loadingEditor": false,
          "style": {
            "font-size": "10pt"
          },
          "arrangement": "horizontal",
          "chart": "pie",
          "counter_pos": "above",
          "donut": true,
          "tilt": false,
          "labels": true,
          "spyable": true,
          "queries": {
            "mode": "selected",
            "ids": [
              1,
              2,
              4,
              5,
              6,
              7
            ]
          },
          "title": "suite SLA"
        },
        {
          "title": "All events",
          "error": false,
          "span": 8,
          "editable": true,
          "group": [
            "default"
          ],
          "type": "table",
          "size": 10,
          "pages": 100,
          "offset": 0,
          "sort": [
            "case_frame_start",
            "desc"
          ],
          "style": {
            "font-size": "9pt"
          },
          "overflow": "min-height",
          "fields": [
            "case_frame_start",
            "host",
            "case_id",
            "frame_state",
            "frame_maintenance"
          ],
          "localTime": true,
          "timeField": "case_frame_start",
          "highlight": [],
          "sortable": true,
          "header": true,
          "paging": true,
          "spyable": true,
          "queries": {
            "mode": "selected",
            "ids": [
              0
            ]
          },
          "field_list": false,
          "status": "Stable",
          "trimFactor": 300,
          "normTimes": true,
          "all_fields": false
        },
        {
          "span": 12,
          "editable": true,
          "type": "histogram",
          "loadingEditor": false,
          "mode": "count",
          "time_field": "case_frame_start",
          "value_field": "suite_duration",
          "x-axis": true,
          "y-axis": true,
          "scale": 1,
          "y_format": "none",
          "grid": {
            "max": null,
            "min": 0
          },
          "queries": {
            "mode": "selected",
            "ids": [
              1,
              2,
              4,
              5,
              6,
              7
            ]
          },
          "annotate": {
            "enable": false,
            "query": "*",
            "size": 20,
            "field": "_type",
            "sort": [
              "_score",
              "desc"
            ]
          },
          "auto_int": false,
          "resolution": 100,
          "interval": "1m",
          "intervals": [
            "auto",
            "1s",
            "1m",
            "5m",
            "10m",
            "30m",
            "1h",
            "3h",
            "12h",
            "1d",
            "1w",
            "1y"
          ],
          "lines": false,
          "fill": 0,
          "linewidth": 3,
          "points": false,
          "pointradius": 5,
          "bars": true,
          "stack": true,
          "spyable": true,
          "zoomlinks": true,
          "options": true,
          "legend": true,
          "show_query": true,
          "interactive": true,
          "legend_counts": true,
          "timezone": "browser",
          "percentage": true,
          "zerofill": true,
          "derivative": false,
          "tooltip": {
            "value_type": "cumulative",
            "query_as_alias": true
          },
          "title": "frame results"
        },
        {
          "span": 12,
          "editable": true,
          "type": "histogram",
          "loadingEditor": false,
          "mode": "max",
          "time_field": "case_start_timestamp",
          "value_field": "case_duration",
          "x-axis": true,
          "y-axis": true,
          "scale": 1,
          "y_format": "none",
          "grid": {
            "max": null,
            "min": 0
          },
          "queries": {
            "mode": "selected",
            "ids": [
              9
            ]
          },
          "annotate": {
            "enable": false,
            "query": "*",
            "size": 20,
            "field": "_type",
            "sort": [
              "_score",
              "desc"
            ]
          },
          "auto_int": false,
          "resolution": 100,
          "interval": "1m",
          "intervals": [
            "auto",
            "1s",
            "1m",
            "5m",
            "10m",
            "30m",
            "1h",
            "3h",
            "12h",
            "1d",
            "1w",
            "1y"
          ],
          "lines": true,
          "fill": 0,
          "linewidth": 3,
          "points": false,
          "pointradius": 5,
          "bars": false,
          "stack": false,
          "spyable": true,
          "zoomlinks": true,
          "options": true,
          "legend": true,
          "show_query": true,
          "interactive": true,
          "legend_counts": true,
          "timezone": "browser",
          "percentage": false,
          "zerofill": true,
          "derivative": false,
          "tooltip": {
            "value_type": "cumulative",
            "query_as_alias": true
          },
          "title": "max duration of cases"
        },
        {
          "title": "All events",
          "error": false,
          "span": 12,
          "editable": true,
          "group": [
            "default"
          ],
          "type": "table",
          "size": 30,
          "pages": 100,
          "offset": 0,
          "sort": [
            "case_start_timestamp",
            "desc"
          ],
          "style": {
            "font-size": "9pt"
          },
          "overflow": "min-height",
          "fields": [
            "case_start_timestamp",
            "case_frame_start",
            "host",
            "case_name",
            "case_result_state",
            "case_duration",
            "uxm_processed",
            "tags",
            "case_customer",
            "case_env",
            "case_app",
            "case_test"
          ],
          "localTime": true,
          "timeField": "case_frame_start",
          "highlight": [],
          "sortable": true,
          "header": true,
          "paging": true,
          "spyable": true,
          "queries": {
            "mode": "selected",
            "ids": [
              9
            ]
          },
          "field_list": true,
          "status": "Stable",
          "trimFactor": 300,
          "normTimes": true,
          "all_fields": false
        }
      ],
      "notice": false
    },
    {
      "title": "Events overview",
      "height": "350px",
      "editable": true,
      "collapse": false,
      "collapsable": true,
      "panels": [],
      "notice": false
    }
  ],
  "editable": true,
  "failover": false,
  "index": {
    "interval": "none",
    "pattern": "[logstash-]YYYY.MM.DD",
    "default": "uxm-data",
    "warm_fields": true
  },
  "style": "dark",
  "panel_hints": true,
  "pulldowns": [
    {
      "type": "query",
      "collapse": false,
      "notice": false,
      "query": "*",
      "pinned": true,
      "history": [
        "_type:sakuli-case AND case_result_state_norm:OK",
        "_type:sakuli-case AND case_result_state_norm:WARNING",
        "_type:sakuli-case AND case_result_state_norm:CRITICAL",
        "_type:sakuli-case AND case_result_state_norm:ERROR",
        "_type:sakuli-case",
        "_type:sakuli-frame AND frame_state:WARNING AND frame_maintenance:F",
        "_type:sakuli-frame AND frame_state:ERROR AND frame_maintenance:F",
        "_type:sakuli-frame AND frame_maintenance:T",
        "_type:sakuli-frame AND frame_state:OK AND frame_maintenance:F",
        "_type:sakuli-frame AND frame_state:unknown AND frame_maintenance:F"
      ],
      "remember": 10,
      "enable": true
    },
    {
      "type": "filtering",
      "collapse": false,
      "notice": true,
      "enable": true
    }
  ],
  "nav": [
    {
      "type": "timepicker",
      "collapse": false,
      "notice": false,
      "status": "Stable",
      "time_options": [
        "5m",
        "15m",
        "1h",
        "6h",
        "12h",
        "24h",
        "2d",
        "7d",
        "30d"
      ],
      "refresh_intervals": [
        "1s",
        "5s",
        "10s",
        "30s",
        "1m",
        "5m",
        "15m",
        "30m",
        "1h",
        "2h",
        "1d"
      ],
      "timefield": "case_frame_start",
      "now": true,
      "filter_id": 0,
      "enable": true
    }
  ],
  "loader": {
    "save_gist": false,
    "save_elasticsearch": true,
    "save_local": true,
    "save_default": true,
    "save_temp": true,
    "save_temp_ttl_enable": true,
    "save_temp_ttl": "30d",
    "load_gist": true,
    "load_elasticsearch": true,
    "load_elasticsearch_size": 20,
    "load_local": true,
    "hide": false
  },
  "refresh": "30s"
}